mips_pipeline.vcd
$date
	Sun May  4 13:46:51 2025
$end

$version
	Synopsys VCS version U-2023.03-SP1_Full64
$end

$timescale
	1ps
$end

$comment Csum: 1 1be5ebb3d5f72344 $end


$scope module mips_pipeline_tb $end
$var reg 1 ! clk $end
$var reg 1 " reset $end
$var integer 32 # cycle $end

$scope module uut $end
$var wire 16 $ instr [15:0] $end
$var wire 16 % if_id_instr [15:0] $end
$var wire 16 & id_ex_reg_data1 [15:0] $end
$var wire 16 ' ex_mem_alu_result [15:0] $end
$var wire 16 ( write_back_data [15:0] $end
$var wire 1 ) clk $end
$var wire 1 * reset $end
$var wire 1 + stall $end
$var reg 16 , pc [15:0] $end
$var reg 16 - if_id_instr_reg [15:0] $end
$var wire 6 . opcode [5:0] $end
$var wire 4 / rs [3:0] $end
$var wire 4 0 rt [3:0] $end
$var wire 4 1 rd [3:0] $end
$var wire 1 2 zero_extend $end
$var wire 16 3 imm_ext [15:0] $end
$var wire 16 4 branch_offset [15:0] $end
$var wire 16 5 branch_target [15:0] $end
$var wire 16 6 jump_target [15:0] $end
$var wire 1 7 is_branch $end
$var wire 1 8 is_bne $end
$var wire 1 9 is_jump $end
$var wire 1 : is_jal $end
$var wire 1 ; is_jr $end
$var wire 1 < is_halt $end
$var wire 1 = is_i_type $end
$var wire 16 > reg_data1 [15:0] $end
$var wire 16 ? reg_data2 [15:0] $end
$var wire 1 @ branch_taken $end
$var wire 16 A jr_target [15:0] $end
$var wire 16 B pc_plus1 [15:0] $end
$var wire 16 C pc_next [15:0] $end
$var wire 16 D fetched_instr [15:0] $end
$var wire 1 E reg_write_wb $end
$var wire 4 F mem_wb_rd [3:0] $end
$var wire 16 G jal_link [15:0] $end
$var wire 1 H is_r_type $end
$var wire 4 I wb_dest [3:0] $end
$var wire 4 J dest_reg [3:0] $end
$var wire 1 K reg_write $end
$var wire 1 L alu_src $end
$var wire 1 M mem_read $end
$var wire 1 N mem_write $end
$var wire 1 O mem_to_reg $end
$var wire 3 P alu_control [2:0] $end
$var wire 1 Q id_ex_mem_read $end
$var wire 4 R id_ex_rt [3:0] $end
$var wire 16 S id_ex_reg_data2 [15:0] $end
$var wire 16 T id_ex_sign_ext [15:0] $end
$var wire 3 U id_ex_alu_control [2:0] $end
$var wire 1 V id_ex_reg_write $end
$var wire 1 W id_ex_mem_write $end
$var wire 1 X id_ex_mem_to_reg $end
$var wire 1 Y id_ex_alu_src $end
$var wire 4 Z id_ex_rs [3:0] $end
$var wire 4 [ id_ex_rd [3:0] $end
$var wire 2 \ forward_a [1:0] $end
$var wire 2 ] forward_b [1:0] $end
$var wire 1 ^ mem_wb_reg_write $end
$var wire 4 _ ex_mem_rd [3:0] $end
$var wire 1 ` ex_mem_reg_write $end
$var wire 16 a alu_result [15:0] $end
$var wire 16 b forwarded_a [15:0] $end
$var wire 16 c forwarded_b [15:0] $end
$var wire 16 d alu_in2 [15:0] $end
$var wire 16 e ex_mem_reg_data2 [15:0] $end
$var wire 1 f ex_mem_mem_read $end
$var wire 1 g ex_mem_mem_write $end
$var wire 1 h ex_mem_mem_to_reg $end
$var reg 16 i mem_read_data [15:0] $end
$var wire 16 j mem_wb_read_data [15:0] $end
$var wire 16 k mem_wb_alu_result [15:0] $end
$var wire 1 l mem_wb_mem_to_reg $end

$scope module imem $end
$var wire 16 m addr [15:0] $end
$var wire 16 D instr [15:0] $end

$scope begin unnamed$$_0 $end
$var integer 32 n i $end
$upscope $end

$upscope $end


$scope module rf $end
$var wire 1 ) clk $end
$var wire 1 E reg_write $end
$var wire 4 / rs [3:0] $end
$var wire 4 0 rt [3:0] $end
$var wire 4 F rd [3:0] $end
$var wire 16 ( write_data [15:0] $end
$var wire 16 > read_data1 [15:0] $end
$var wire 16 ? read_data2 [15:0] $end
$var integer 32 o i $end

$scope task print_registers $end
$var integer 32 p i $end
$upscope $end

$upscope $end


$scope module cu $end
$var wire 6 q opcode [5:0] $end
$var wire 4 1 funct [3:0] $end
$var reg 1 r reg_write $end
$var reg 1 s alu_src $end
$var reg 1 t mem_read $end
$var reg 1 u mem_write $end
$var reg 1 v mem_to_reg $end
$var reg 3 w alu_control [2:0] $end
$upscope $end


$scope module hdu $end
$var wire 4 x id_rs [3:0] $end
$var wire 4 y id_rt [3:0] $end
$var wire 4 R ex_rt [3:0] $end
$var wire 1 Q ex_mem_read $end
$var reg 1 z stall $end
$upscope $end


$scope module id_ex $end
$var wire 1 ) clk $end
$var wire 1 * reset $end
$var wire 16 > reg_data1_in [15:0] $end
$var wire 16 ? reg_data2_in [15:0] $end
$var wire 16 3 sign_ext_in [15:0] $end
$var wire 4 / rs_in [3:0] $end
$var wire 4 0 rt_in [3:0] $end
$var wire 4 I rd_in [3:0] $end
$var wire 3 P alu_control_in [2:0] $end
$var wire 1 K reg_write_in $end
$var wire 1 M mem_read_in $end
$var wire 1 N mem_write_in $end
$var wire 1 O mem_to_reg_in $end
$var wire 1 L alu_src_in $end
$var reg 16 { reg_data1_out [15:0] $end
$var reg 16 | reg_data2_out [15:0] $end
$var reg 16 } sign_ext_out [15:0] $end
$var reg 4 ~ rs_out [3:0] $end
$var reg 4 "! rt_out [3:0] $end
$var reg 4 "" rd_out [3:0] $end
$var reg 3 "# alu_control_out [2:0] $end
$var reg 1 "$ reg_write_out $end
$var reg 1 "% mem_read_out $end
$var reg 1 "& mem_write_out $end
$var reg 1 "' mem_to_reg_out $end
$var reg 1 "( alu_src_out $end
$var reg 4 ") temp_rd [3:0] $end
$upscope $end


$scope module fwd $end
$var wire 4 Z id_ex_rs [3:0] $end
$var wire 4 R id_ex_rt [3:0] $end
$var wire 4 _ ex_mem_rd [3:0] $end
$var wire 4 F mem_wb_rd [3:0] $end
$var wire 1 ` ex_mem_reg_write $end
$var wire 1 ^ mem_wb_reg_write $end
$var reg 2 "* forward_a [1:0] $end
$var reg 2 "+ forward_b [1:0] $end
$upscope $end


$scope module alu_unit $end
$var wire 16 b in1 [15:0] $end
$var wire 16 d in2 [15:0] $end
$var wire 3 U alu_control [2:0] $end
$var reg 16 ", result [15:0] $end
$var wire 1 "- zero $end
$upscope $end


$scope module ex_mem $end
$var wire 1 ) clk $end
$var wire 1 * reset $end
$var wire 16 a alu_result_in [15:0] $end
$var wire 16 c reg_data2_in [15:0] $end
$var wire 4 [ rd_in [3:0] $end
$var wire 1 V reg_write_in $end
$var wire 1 Q mem_read_in $end
$var wire 1 W mem_write_in $end
$var wire 1 X mem_to_reg_in $end
$var reg 16 ". alu_result_out [15:0] $end
$var reg 16 "/ reg_data2_out [15:0] $end
$var reg 4 "0 rd_out [3:0] $end
$var reg 1 "1 reg_write_out $end
$var reg 1 "2 mem_read_out $end
$var reg 1 "3 mem_write_out $end
$var reg 1 "4 mem_to_reg_out $end
$upscope $end


$scope module mem_wb $end
$var wire 1 ) clk $end
$var wire 1 * reset $end
$var wire 16 "5 read_data_in [15:0] $end
$var wire 16 ' alu_result_in [15:0] $end
$var wire 4 _ rd_in [3:0] $end
$var wire 1 ` reg_write_in $end
$var wire 1 h mem_to_reg_in $end
$var reg 16 "6 read_data_out [15:0] $end
$var reg 16 "7 alu_result_out [15:0] $end
$var reg 4 "8 rd_out [3:0] $end
$var reg 1 "9 reg_write_out $end
$var reg 1 ": mem_to_reg_out $end
$upscope $end

$upscope $end

$upscope $end

$enddefinitions $end

#0
$dumpvars
0L
0"(
0@
0!
0s
0t
0v
0u
1r
0f
0h
0g
0`
0z
0"%
0"'
0"&
0"$
0Y
0Q
0X
0W
0V
08
07
0<
0=
0:
0;
09
1H
0M
0"2
0O
0"4
0":
0"9
0l
z^
0N
0"3
1K
0"1
0E
1"
0+
1*
1"-
02
b0000000000000000 m
b000 P
b000 "#
b0000000000000000 d
b0000000000000000 a
b0000000000000000 ".
b0000000000000000 4
b0000000000000001 5
b000 w
b00000000000000000000000000000000 #
b0000 J
b0000000000000000 '
b0000 _
b0000000000000000 e
b0011110011001111 D
b00 \
b00 ]
b0000000000000000 b
b0000000000000000 c
b00 "*
b00 "+
b0000 ""
b0000000000000000 |
b000 U
b0000 [
b0000000000000000 &
b0000000000000000 S
b0000 Z
b0000 R
b0000000000000000 T
b0000000000000000 %
b0000000000000000 -
b0000000000000000 3
b0011110011001111 $
b0000000000000001 G
b0000000000000000 A
b0000000000000000 6
bxxxxxxxxxxxxxxxx i
b0000000000000000 "7
b0000 "8
b0000000000000000 k
b0000 F
b0000000000000000 j
b0000000000000000 ,
b0000000000000001 C
b0000000000000001 B
bxxxxxxxxxxxxxxxxxxxxxxxxxxxxxxxx p
b0000 1
b0000 "0
bxxxxxxxxxxxxxxxx "5
b0000000000000000 "6
b0000000000000000 >
b0000000000000000 {
b0000000000000000 ?
b0000000000000000 "/
b0000000000000000 ",
b00000000000000000000000000010000 o
b0000 ~
b0000 "!
b0000000000000000 }
bxxxxxx .
bxxxx /
bxxxx 0
bxxxxxx q
bxxxx x
bxxxx y
bxxxx ")
b00000000000000000000000100000000 n
b0000 I
b0000000000000000 (
0)
$end
b000000 .
b0000 /
b0000 0
b000000 q
b0000 x
b0000 y
#5000
1!
1)
#10000
0!
0)
#15000
1!
1)
#20000
0"
0*
0!
0)
#25000
1!
1)
b00000000000000000000000000000001 #
b0000 ")
1"$
1V
b0000000000000001 ,
b0000000000000001 m
b0000110000000010 D
b0000110000000010 $
b0000000000000010 B
b0000000000000010 G
b0000000000000010 5
b0011110011001111 -
b001111 .
b0011 /
b0011 0
b001111 q
b0011 x
b0011 y
0H
b0011110011001111 %
b0000000011001111 6
b1111 1
bxxxxxxxxxxxxxxxx "6
bxxxxxxxxxxxxxxxx j
b0000000000000010 C
b110 w
b110 P
1s
1L
1=
b1111111111001111 3
b1111111111001111 4
b1111111111010001 5
b0011 I
b0011 J
#30000
0!
0)
#35000
1!
1)
b00000000000000000000000000000010 #
b0011 ")
b1111111111001111 }
b1111111111001111 T
b0011 ~
b0011 Z
b0011 "!
b0011 R
b0011 ""
b0011 [
b110 "#
b110 U
1"(
1Y
b0000000000000010 ,
b0000000000000010 m
b0010000111100000 D
b0010000111100000 $
b0000000000000011 B
b0000000000000011 G
b1111111111010010 5
b0000110000000010 -
b000011 .
b0000 /
b0000 0
b000011 q
b0000 x
b0000 y
1:
b0000110000000010 %
b0000000000000010 6
b0010 1
1"1
1`
b1111111111001111 d
b0000000000000010 C
b000 w
b000 P
0s
0L
b1111 I
b1111 J
0=
b0000000000000010 3
b0000000000000010 4
b0000000000000101 5
b1100111100000000 ",
b1100111100000000 a
0"-
#40000
0!
0)
#45000
1!
1)
b00000000000000000000000000000011 #
b1111 ")
b0000000000000010 }
b0000000000000010 T
b0000 ~
b0000 Z
b0000 "!
b0000 R
b1111 ""
b1111 [
b000 "#
b000 U
0"(
0Y
b0000000000000000 -
b000000 .
b000000 q
0:
1H
b0000000000000000 %
b0000000000000000 6
b0000 1
b1100111100000000 ".
b1100111100000000 '
b0011 "0
b0011 _
1"9
1E
b0000000000000000 d
b0000000000000000 ",
b0000000000000000 a
1"-
b0000 I
b0000 J
b0000000000000011 C
b0000000000000000 3
b0000000000000000 4
b0000000000000011 5
#50000
0!
0)
#55000
1!
1)
b00000000000000000000000000000100 #
b0000 ")
b0000000000000000 }
b0000000000000000 T
b0000 ""
b0000 [
b0000000000000011 ,
b0000000000000011 m
b0011000110001111 D
b0011000110001111 $
b0000000000000100 B
b0000000000000100 G
b0000000000000100 5
b0010000111100000 -
b001000 .
b0111 /
b1000 0
b001000 q
b0111 x
b1000 y
1;
0H
b0010000111100000 %
b0000000111100000 6
b0000000000000000 ".
b0000000000000000 '
b1111 "0
b1111 _
b1100111100000000 "7
b1100111100000000 k
b0011 "8
b0011 F
b0000000000000000 C
0r
0K
b1111111111100000 3
b1111111111100000 4
b1111111111100100 5
b1100111100000000 (
#60000
0!
0)
#65000
1!
1)
b00000000000000000000000000000101 #
b1111111111100000 }
b1111111111100000 T
b0111 ~
b0111 Z
b1000 "!
b1000 R
0"$
0V
b0000000000000000 ,
b0000000000000000 m
b0011110011001111 D
b0011110011001111 $
b0000000000000001 B
b0000000000000001 G
b1111111111100001 5
b0000000000000000 -
b000000 .
b0000 /
b0000 0
b000000 q
b0000 x
b0000 y
0;
1H
b0000000000000000 %
b0000000000000000 6
b0000 "0
b0000 _
b0000000000000000 "7
b0000000000000000 k
b1111 "8
b1111 F
1r
1K
b0000000000000001 C
b0000000000000000 3
b0000000000000000 4
b0000000000000001 5
b0000000000000000 (
#70000
0!
0)
#75000
1!
1)
b00000000000000000000000000000110 #
b0000000000000000 }
b0000000000000000 T
b0000 ~
b0000 Z
b0000 "!
b0000 R
1"$
1V
b0000000000000001 ,
b0000000000000001 m
b0000110000000010 D
b0000110000000010 $
b0000000000000010 B
b0000000000000010 G
b0000000000000010 5
b0011110011001111 -
b001111 .
b0011 /
b0011 0
b001111 q
b0011 x
b0011 y
b1100111100000000 >
b1100111100000000 A
b1100111100000000 ?
0H
b0011110011001111 %
b0000000011001111 6
b1111 1
0"1
0`
b0000 "8
b0000 F
b0000000000000010 C
b110 w
b110 P
1s
1L
1=
b1111111111001111 3
b1111111111001111 4
b1111111111010001 5
b0011 I
b0011 J
#80000
0!
0)
#85000
1!
1)
b00000000000000000000000000000111 #
b0011 ")
b1100111100000000 {
b1100111100000000 &
b1100111100000000 |
b1100111100000000 S
b1111111111001111 }
b1111111111001111 T
b0011 ~
b0011 Z
b0011 "!
b0011 R
b0011 ""
b0011 [
b110 "#
b110 U
1"(
1Y
b0000000000000010 ,
b0000000000000010 m
b0010000111100000 D
b0010000111100000 $
b0000000000000011 B
b0000000000000011 G
b1111111111010010 5
b0000110000000010 -
b000011 .
b0000 /
b0000 0
b000011 q
b0000 x
b0000 y
b0000000000000000 >
b0000000000000000 A
b0000000000000000 ?
1:
b0000110000000010 %
b0000000000000010 6
b0010 1
1"1
1`
0"9
0E
b1100111100000000 b
b1100111100000000 c
b1111111111001111 d
b0000000000000010 C
b000 w
b000 P
0s
0L
b1111 I
b1111 J
0=
b0000000000000010 3
b0000000000000010 4
b0000000000000101 5
b1100111100000000 ",
b1100111100000000 a
0"-
#90000
0!
0)
#95000
1!
1)
b00000000000000000000000000001000 #
b1111 ")
b0000000000000000 {
b0000000000000000 &
b0000000000000000 |
b0000000000000000 S
b0000000000000010 }
b0000000000000010 T
b0000 ~
b0000 Z
b0000 "!
b0000 R
b1111 ""
b1111 [
b000 "#
b000 U
0"(
0Y
b0000000000000000 -
b000000 .
b000000 q
0:
1H
b0000000000000000 %
b0000000000000000 6
b0000 1
b1100111100000000 ".
b1100111100000000 '
b1100111100000000 "/
b1100111100000000 e
b0011 "0
b0011 _
1"9
1E
b0000000000000000 b
b0000000000000000 c
b0000000000000000 d
b0000000000000000 ",
b0000000000000000 a
1"-
b0000 I
b0000 J
b0000000000000011 C
b0000000000000000 3
b0000000000000000 4
b0000000000000011 5
#100000
0!
0)
#105000
1!
1)
b00000000000000000000000000001001 #
b0000 ")
b0000000000000000 }
b0000000000000000 T
b0000 ""
b0000 [
b0000000000000011 ,
b0000000000000011 m
b0011000110001111 D
b0011000110001111 $
b0000000000000100 B
b0000000000000100 G
b0000000000000100 5
b0010000111100000 -
b001000 .
b0111 /
b1000 0
b001000 q
b0111 x
b1000 y
1;
0H
b0010000111100000 %
b0000000111100000 6
b0000000000000000 ".
b0000000000000000 '
b0000000000000000 "/
b0000000000000000 e
b1111 "0
b1111 _
b1100111100000000 "7
b1100111100000000 k
b0011 "8
b0011 F
b0000000000000000 C
0r
0K
b1111111111100000 3
b1111111111100000 4
b1111111111100100 5
b1100111100000000 (
#110000
0!
0)
#115000
1!
1)
b00000000000000000000000000001010 #
b1111111111100000 }
b1111111111100000 T
b0111 ~
b0111 Z
b1000 "!
b1000 R
0"$
0V
b0000000000000000 ,
b0000000000000000 m
b0011110011001111 D
b0011110011001111 $
b0000000000000001 B
b0000000000000001 G
b1111111111100001 5
b0000000000000000 -
b000000 .
b0000 /
b0000 0
b000000 q
b0000 x
b0000 y
0;
1H
b0000000000000000 %
b0000000000000000 6
b0000 "0
b0000 _
b0000000000000000 "7
b0000000000000000 k
b1111 "8
b1111 F
1r
1K
b0000000000000001 C
b0000000000000000 3
b0000000000000000 4
b0000000000000001 5
b0000000000000000 (
#120000
0!
0)
#125000
1!
1)
b00000000000000000000000000001011 #
b0000000000000000 }
b0000000000000000 T
b0000 ~
b0000 Z
b0000 "!
b0000 R
1"$
1V
b0000000000000001 ,
b0000000000000001 m
b0000110000000010 D
b0000110000000010 $
b0000000000000010 B
b0000000000000010 G
b0000000000000010 5
b0011110011001111 -
b001111 .
b0011 /
b0011 0
b001111 q
b0011 x
b0011 y
b1100111100000000 >
b1100111100000000 A
b1100111100000000 ?
0H
b0011110011001111 %
b0000000011001111 6
b1111 1
0"1
0`
b0000 "8
b0000 F
b0000000000000010 C
b110 w
b110 P
1s
1L
1=
b1111111111001111 3
b1111111111001111 4
b1111111111010001 5
b0011 I
b0011 J
#130000
0!
0)
#135000
1!
1)
b00000000000000000000000000001100 #
b0011 ")
b1100111100000000 {
b1100111100000000 &
b1100111100000000 |
b1100111100000000 S
b1111111111001111 }
b1111111111001111 T
b0011 ~
b0011 Z
b0011 "!
b0011 R
b0011 ""
b0011 [
b110 "#
b110 U
1"(
1Y
b0000000000000010 ,
b0000000000000010 m
b0010000111100000 D
b0010000111100000 $
b0000000000000011 B
b0000000000000011 G
b1111111111010010 5
b0000110000000010 -
b000011 .
b0000 /
b0000 0
b000011 q
b0000 x
b0000 y
b0000000000000000 >
b0000000000000000 A
b0000000000000000 ?
1:
b0000110000000010 %
b0000000000000010 6
b0010 1
1"1
1`
0"9
0E
b1100111100000000 b
b1100111100000000 c
b1111111111001111 d
b0000000000000010 C
b000 w
b000 P
0s
0L
b1111 I
b1111 J
0=
b0000000000000010 3
b0000000000000010 4
b0000000000000101 5
b1100111100000000 ",
b1100111100000000 a
0"-
#140000
0!
0)
#145000
1!
1)
b00000000000000000000000000001101 #
b1111 ")
b0000000000000000 {
b0000000000000000 &
b0000000000000000 |
b0000000000000000 S
b0000000000000010 }
b0000000000000010 T
b0000 ~
b0000 Z
b0000 "!
b0000 R
b1111 ""
b1111 [
b000 "#
b000 U
0"(
0Y
b0000000000000000 -
b000000 .
b000000 q
0:
1H
b0000000000000000 %
b0000000000000000 6
b0000 1
b1100111100000000 ".
b1100111100000000 '
b1100111100000000 "/
b1100111100000000 e
b0011 "0
b0011 _
1"9
1E
b0000000000000000 b
b0000000000000000 c
b0000000000000000 d
b0000000000000000 ",
b0000000000000000 a
1"-
b0000 I
b0000 J
b0000000000000011 C
b0000000000000000 3
b0000000000000000 4
b0000000000000011 5
#150000
0!
0)
#155000
1!
1)
b00000000000000000000000000001110 #
b0000 ")
b0000000000000000 }
b0000000000000000 T
b0000 ""
b0000 [
b0000000000000011 ,
b0000000000000011 m
b0011000110001111 D
b0011000110001111 $
b0000000000000100 B
b0000000000000100 G
b0000000000000100 5
b0010000111100000 -
b001000 .
b0111 /
b1000 0
b001000 q
b0111 x
b1000 y
1;
0H
b0010000111100000 %
b0000000111100000 6
b0000000000000000 ".
b0000000000000000 '
b0000000000000000 "/
b0000000000000000 e
b1111 "0
b1111 _
b1100111100000000 "7
b1100111100000000 k
b0011 "8
b0011 F
b0000000000000000 C
0r
0K
b1111111111100000 3
b1111111111100000 4
b1111111111100100 5
b1100111100000000 (
#160000
0!
0)
#165000
1!
1)
b00000000000000000000000000001111 #
b1111111111100000 }
b1111111111100000 T
b0111 ~
b0111 Z
b1000 "!
b1000 R
0"$
0V
b0000000000000000 ,
b0000000000000000 m
b0011110011001111 D
b0011110011001111 $
b0000000000000001 B
b0000000000000001 G
b1111111111100001 5
b0000000000000000 -
b000000 .
b0000 /
b0000 0
b000000 q
b0000 x
b0000 y
0;
1H
b0000000000000000 %
b0000000000000000 6
b0000 "0
b0000 _
b0000000000000000 "7
b0000000000000000 k
b1111 "8
b1111 F
1r
1K
b0000000000000001 C
b0000000000000000 3
b0000000000000000 4
b0000000000000001 5
b0000000000000000 (
#170000
0!
0)
#175000
1!
1)
b00000000000000000000000000010000 #
b0000000000000000 }
b0000000000000000 T
b0000 ~
b0000 Z
b0000 "!
b0000 R
1"$
1V
b0000000000000001 ,
b0000000000000001 m
b0000110000000010 D
b0000110000000010 $
b0000000000000010 B
b0000000000000010 G
b0000000000000010 5
b0011110011001111 -
b001111 .
b0011 /
b0011 0
b001111 q
b0011 x
b0011 y
b1100111100000000 >
b1100111100000000 A
b1100111100000000 ?
0H
b0011110011001111 %
b0000000011001111 6
b1111 1
0"1
0`
b0000 "8
b0000 F
b0000000000000010 C
b110 w
b110 P
1s
1L
1=
b1111111111001111 3
b1111111111001111 4
b1111111111010001 5
b0011 I
b0011 J
#180000
0!
0)
#185000
1!
1)
b00000000000000000000000000010001 #
b0011 ")
b1100111100000000 {
b1100111100000000 &
b1100111100000000 |
b1100111100000000 S
b1111111111001111 }
b1111111111001111 T
b0011 ~
b0011 Z
b0011 "!
b0011 R
b0011 ""
b0011 [
b110 "#
b110 U
1"(
1Y
b0000000000000010 ,
b0000000000000010 m
b0010000111100000 D
b0010000111100000 $
b0000000000000011 B
b0000000000000011 G
b1111111111010010 5
b0000110000000010 -
b000011 .
b0000 /
b0000 0
b000011 q
b0000 x
b0000 y
b0000000000000000 >
b0000000000000000 A
b0000000000000000 ?
1:
b0000110000000010 %
b0000000000000010 6
b0010 1
1"1
1`
0"9
0E
b1100111100000000 b
b1100111100000000 c
b1111111111001111 d
b0000000000000010 C
b000 w
b000 P
0s
0L
b1111 I
b1111 J
0=
b0000000000000010 3
b0000000000000010 4
b0000000000000101 5
b1100111100000000 ",
b1100111100000000 a
0"-
#190000
0!
0)
#195000
1!
1)
b00000000000000000000000000010010 #
b1111 ")
b0000000000000000 {
b0000000000000000 &
b0000000000000000 |
b0000000000000000 S
b0000000000000010 }
b0000000000000010 T
b0000 ~
b0000 Z
b0000 "!
b0000 R
b1111 ""
b1111 [
b000 "#
b000 U
0"(
0Y
b0000000000000000 -
b000000 .
b000000 q
0:
1H
b0000000000000000 %
b0000000000000000 6
b0000 1
b1100111100000000 ".
b1100111100000000 '
b1100111100000000 "/
b1100111100000000 e
b0011 "0
b0011 _
1"9
1E
b0000000000000000 b
b0000000000000000 c
b0000000000000000 d
b0000000000000000 ",
b0000000000000000 a
1"-
b0000 I
b0000 J
b0000000000000011 C
b0000000000000000 3
b0000000000000000 4
b0000000000000011 5
#200000
0!
0)
#205000
1!
1)
b00000000000000000000000000010011 #
b0000 ")
b0000000000000000 }
b0000000000000000 T
b0000 ""
b0000 [
b0000000000000011 ,
b0000000000000011 m
b0011000110001111 D
b0011000110001111 $
b0000000000000100 B
b0000000000000100 G
b0000000000000100 5
b0010000111100000 -
b001000 .
b0111 /
b1000 0
b001000 q
b0111 x
b1000 y
1;
0H
b0010000111100000 %
b0000000111100000 6
b0000000000000000 ".
b0000000000000000 '
b0000000000000000 "/
b0000000000000000 e
b1111 "0
b1111 _
b1100111100000000 "7
b1100111100000000 k
b0011 "8
b0011 F
b0000000000000000 C
0r
0K
b1111111111100000 3
b1111111111100000 4
b1111111111100100 5
b1100111100000000 (
#210000
0!
0)
#215000
1!
1)
b00000000000000000000000000010100 #
b1111111111100000 }
b1111111111100000 T
b0111 ~
b0111 Z
b1000 "!
b1000 R
0"$
0V
b0000000000000000 ,
b0000000000000000 m
b0011110011001111 D
b0011110011001111 $
b0000000000000001 B
b0000000000000001 G
b1111111111100001 5
b0000000000000000 -
b000000 .
b0000 /
b0000 0
b000000 q
b0000 x
b0000 y
0;
1H
b0000000000000000 %
b0000000000000000 6
b0000 "0
b0000 _
b0000000000000000 "7
b0000000000000000 k
b1111 "8
b1111 F
1r
1K
b0000000000000001 C
b0000000000000000 3
b0000000000000000 4
b0000000000000001 5
b0000000000000000 (
#220000
0!
0)
#225000
1!
1)
b00000000000000000000000000010101 #
b0000000000000000 }
b0000000000000000 T
b0000 ~
b0000 Z
b0000 "!
b0000 R
1"$
1V
b0000000000000001 ,
b0000000000000001 m
b0000110000000010 D
b0000110000000010 $
b0000000000000010 B
b0000000000000010 G
b0000000000000010 5
b0011110011001111 -
b001111 .
b0011 /
b0011 0
b001111 q
b0011 x
b0011 y
b1100111100000000 >
b1100111100000000 A
b1100111100000000 ?
0H
b0011110011001111 %
b0000000011001111 6
b1111 1
0"1
0`
b0000 "8
b0000 F
b0000000000000010 C
b110 w
b110 P
1s
1L
1=
b1111111111001111 3
b1111111111001111 4
b1111111111010001 5
b0011 I
b0011 J
#230000
0!
0)
#235000
1!
1)
b00000000000000000000000000010110 #
b0011 ")
b1100111100000000 {
b1100111100000000 &
b1100111100000000 |
b1100111100000000 S
b1111111111001111 }
b1111111111001111 T
b0011 ~
b0011 Z
b0011 "!
b0011 R
b0011 ""
b0011 [
b110 "#
b110 U
1"(
1Y
b0000000000000010 ,
b0000000000000010 m
b0010000111100000 D
b0010000111100000 $
b0000000000000011 B
b0000000000000011 G
b1111111111010010 5
b0000110000000010 -
b000011 .
b0000 /
b0000 0
b000011 q
b0000 x
b0000 y
b0000000000000000 >
b0000000000000000 A
b0000000000000000 ?
1:
b0000110000000010 %
b0000000000000010 6
b0010 1
1"1
1`
0"9
0E
b1100111100000000 b
b1100111100000000 c
b1111111111001111 d
b0000000000000010 C
b000 w
b000 P
0s
0L
b1111 I
b1111 J
0=
b0000000000000010 3
b0000000000000010 4
b0000000000000101 5
b1100111100000000 ",
b1100111100000000 a
0"-
#240000
0!
0)
#245000
1!
1)
b00000000000000000000000000010111 #
b1111 ")
b0000000000000000 {
b0000000000000000 &
b0000000000000000 |
b0000000000000000 S
b0000000000000010 }
b0000000000000010 T
b0000 ~
b0000 Z
b0000 "!
b0000 R
b1111 ""
b1111 [
b000 "#
b000 U
0"(
0Y
b0000000000000000 -
b000000 .
b000000 q
0:
1H
b0000000000000000 %
b0000000000000000 6
b0000 1
b1100111100000000 ".
b1100111100000000 '
b1100111100000000 "/
b1100111100000000 e
b0011 "0
b0011 _
1"9
1E
b0000000000000000 b
b0000000000000000 c
b0000000000000000 d
b0000000000000000 ",
b0000000000000000 a
1"-
b0000 I
b0000 J
b0000000000000011 C
b0000000000000000 3
b0000000000000000 4
b0000000000000011 5
#250000
0!
0)
#255000
1!
1)
b00000000000000000000000000011000 #
b0000 ")
b0000000000000000 }
b0000000000000000 T
b0000 ""
b0000 [
b0000000000000011 ,
b0000000000000011 m
b0011000110001111 D
b0011000110001111 $
b0000000000000100 B
b0000000000000100 G
b0000000000000100 5
b0010000111100000 -
b001000 .
b0111 /
b1000 0
b001000 q
b0111 x
b1000 y
1;
0H
b0010000111100000 %
b0000000111100000 6
b0000000000000000 ".
b0000000000000000 '
b0000000000000000 "/
b0000000000000000 e
b1111 "0
b1111 _
b1100111100000000 "7
b1100111100000000 k
b0011 "8
b0011 F
b0000000000000000 C
0r
0K
b1111111111100000 3
b1111111111100000 4
b1111111111100100 5
b1100111100000000 (
#260000
0!
0)
#265000
1!
1)
b00000000000000000000000000011001 #
b1111111111100000 }
b1111111111100000 T
b0111 ~
b0111 Z
b1000 "!
b1000 R
0"$
0V
b0000000000000000 ,
b0000000000000000 m
b0011110011001111 D
b0011110011001111 $
b0000000000000001 B
b0000000000000001 G
b1111111111100001 5
b0000000000000000 -
b000000 .
b0000 /
b0000 0
b000000 q
b0000 x
b0000 y
0;
1H
b0000000000000000 %
b0000000000000000 6
b0000 "0
b0000 _
b0000000000000000 "7
b0000000000000000 k
b1111 "8
b1111 F
1r
1K
b0000000000000001 C
b0000000000000000 3
b0000000000000000 4
b0000000000000001 5
b0000000000000000 (
#270000
0!
0)
#275000
1!
1)
b00000000000000000000000000011010 #
b0000000000000000 }
b0000000000000000 T
b0000 ~
b0000 Z
b0000 "!
b0000 R
1"$
1V
b0000000000000001 ,
b0000000000000001 m
b0000110000000010 D
b0000110000000010 $
b0000000000000010 B
b0000000000000010 G
b0000000000000010 5
b0011110011001111 -
b001111 .
b0011 /
b0011 0
b001111 q
b0011 x
b0011 y
b1100111100000000 >
b1100111100000000 A
b1100111100000000 ?
0H
b0011110011001111 %
b0000000011001111 6
b1111 1
0"1
0`
b0000 "8
b0000 F
b0000000000000010 C
b110 w
b110 P
1s
1L
1=
b1111111111001111 3
b1111111111001111 4
b1111111111010001 5
b0011 I
b0011 J
#280000
0!
0)
#285000
1!
1)
b00000000000000000000000000011011 #
b0011 ")
b1100111100000000 {
b1100111100000000 &
b1100111100000000 |
b1100111100000000 S
b1111111111001111 }
b1111111111001111 T
b0011 ~
b0011 Z
b0011 "!
b0011 R
b0011 ""
b0011 [
b110 "#
b110 U
1"(
1Y
b0000000000000010 ,
b0000000000000010 m
b0010000111100000 D
b0010000111100000 $
b0000000000000011 B
b0000000000000011 G
b1111111111010010 5
b0000110000000010 -
b000011 .
b0000 /
b0000 0
b000011 q
b0000 x
b0000 y
b0000000000000000 >
b0000000000000000 A
b0000000000000000 ?
1:
b0000110000000010 %
b0000000000000010 6
b0010 1
1"1
1`
0"9
0E
b1100111100000000 b
b1100111100000000 c
b1111111111001111 d
b0000000000000010 C
b000 w
b000 P
0s
0L
b1111 I
b1111 J
0=
b0000000000000010 3
b0000000000000010 4
b0000000000000101 5
b1100111100000000 ",
b1100111100000000 a
0"-
#290000
0!
0)
